%YAML 1.1
%TAG !u! tag:unity3d.com,2011:
--- !u!47 &1
QualitySettings:
  m_ObjectHideFlags: 0
  serializedVersion: 5
  m_CurrentQuality: 0
  m_QualitySettings:
  - serializedVersion: 2
    name: RiftAndroid
    pixelLightCount: 0
    shadows: 0
    shadowResolution: 0
    shadowProjection: 0
    shadowCascades: 1
    shadowDistance: 150
    shadowCascade2Split: .333333343
    shadowCascade4Split: {x: .0666666701, y: .199999988, z: .466666639}
    blendWeights: 4
    textureQuality: 0
    anisotropicTextures: 0
    antiAliasing: 0
    softParticles: 0
    softVegetation: 1
    realtimeReflectionProbes: 0
    billboardsFaceCameraPosition: 0
    vSyncCount: 0
    lodBias: 2
    maximumLODLevel: 0
    particleRaycastBudget: 256
    excludedTargetPlatforms:
    - iPhone
    - Standalone
    - Web
    - BlackBerry
    - Windows Store Apps
    - WP8
  m_PerPlatformDefaultQuality:
    Android: 0
    BlackBerry: 0
    Samsung TV: 0
    Standalone: 0
    WP8: 0
    Web: 0
    WebGL: 0
    Windows Store Apps: 0
    iPhone: 0
